[
    {
        "id": "3226ba51-c329-4ed7-9a89-276ed87b7549",
        "nombres": "Adrian",
        "apellidos": "Shepard",
        "ci": "12222",
        "direccion": "Bolivia",
        "sexo": "Masculino"
    }
]